{
  "__type__": "cc.AnimationClip",
  "_name": "mushroom_die",
  "_objFlags": 0,
  "_native": "",
  "_duration": 0.016666666666666666,
  "sample": 60,
  "speed": 1,
  "wrapMode": 1,
  "curveData": {
    "comps": {
      "cc.Sprite": {
        "spriteFrame": [
          {
            "frame": 0,
            "value": {
              "__uuid__": "a68e6d22-0a2f-479a-b52a-e68320c3cb5d"
            }
          }
        ]
      }
    }
  },
  "events": []
}